%YAML 1.1
%TAG !u! tag:unity3d.com,2011:
--- !u!1045 &1
EditorBuildSettings:
  m_ObjectHideFlags: 0
  serializedVersion: 2
  m_Scenes:
  - enabled: 1
    path: Assets/Scenes/MainMenu.unity
    guid: 92b7572c41a2d43478d269f89fa1cf64
  - enabled: 1
    path: Assets/Scenes/SampleScene.unity
    guid: c850ee8c3b14cc8459e7e186857cf567
  m_configObjects:
    com.unity.adaptiveperformance.simulator.provider_settings: {fileID: 11400000,
      guid: ea8fd4ad56267804d9573b33336de6b3, type: 2}
